%YAML 1.1
%TAG !u! tag:unity3d.com,2011:
--- !u!114 &11400000
MonoBehaviour:
  m_ObjectHideFlags: 0
  m_CorrespondingSourceObject: {fileID: 0}
  m_PrefabInstance: {fileID: 0}
  m_PrefabAsset: {fileID: 0}
  m_GameObject: {fileID: 0}
  m_Enabled: 1
  m_EditorHideFlags: 0
  m_Script: {fileID: 11500000, guid: 3d42115519120084e8629045a9dd6923, type: 3}
  m_Name: '[CA] - Single Attack'
  m_EditorClassIdentifier: 
  multiplier: 1
  attackType: 0
  actionApplying: 0
  attackSelection: 0
  damageType: 0
  isStun: 0
  roundsCounter: 3
  attackDirection: 0
