%YAML 1.1
%TAG !u! tag:unity3d.com,2011:
--- !u!114 &11400000
MonoBehaviour:
  m_ObjectHideFlags: 0
  m_CorrespondingSourceObject: {fileID: 0}
  m_PrefabInstance: {fileID: 0}
  m_PrefabAsset: {fileID: 0}
  m_GameObject: {fileID: 0}
  m_Enabled: 1
  m_EditorHideFlags: 0
  m_Script: {fileID: 11500000, guid: 5cbc073f37a923c4da351f933486900e, type: 3}
  m_Name: '[Unit Data] - Reserve Unit 6'
  m_EditorClassIdentifier: 
  initiate: 18
  health: 100
  physicalPower: 8
  magicalPower: 9
  healPower: 10
  physicalResist: 11
  fireResist: 12
  poisonResist: 13
  baseLightType: 2
  baseLight: 14
  extraLightType: 0
  extraLight: 15
  unitName: Reserve Unit 6
  description: Reserve Unit
